7000000:6098470
7000001:private
7000002:
7000003:4756331
7000004:5652839,6111620,6891750
7000005:private
7000006:5801212
7000007:private
7000008:1585026,1600663,1907949,1914439,1985150,2000446,2010861,2013647,2217945,2313123,2446619,2556817,2646021,2662418,2664056,2872870,2879718,2892342,3028707,3032189,3060465,3168104,3437864,3679686,3829726,4076853,4179367,4226113,4498842,4531351,4720894,5053652,5228051,5347713,5834540,6492638,6660529,6867061,6911757,6955444,7084571,7235760,7313308,7401953,7660941,7857644,8155613,8895546,9133201,9413772,10319013,11087928,11253130,12022978,12160992,14484337,20243843,22053091,22208753,22927515,29936767,30848275,31156727,39461030,54818726
7000009:notfound
7000010:3099189
7000011:2054283,3590922,3734056,3742593,3860383,4039476,4085562,4122629,4189469,4417957,4427822,4494840,4625230,4641969,4677799,4697547,4753107,4780712,4813502,4820010,4898980,4919237,4971203,5044834,5063407,5114270,5121977,5124511,5179981,5253715,5278698,5308846,5309282,5316539,5330857,5423536,5431267,5518087,5579069,5591192,5626368,5663829,5672176,5738934,5746974,5798569,5801306,5847769,5847949,5964958,6039199,6158973,6219828,6229227,6235230,6373623,6374766,6494829,6547328,6602174,6673813,6696577,6762545,6779735,6780320,6794270,6795135,6802002,6807454,6822206,6825637,6833876,6844556,6845060,6856124,6888323,6967215,6991900,6993662,7042146,7100206,7116056,7124113,7176308,7180520,7203033,7207679,7241500,7274371,7284409,7293509,7300553,7362844,7385998,7399418,7414718,7478180,7528011,7624321,7626077,7678247,7704936,7774795,7840110,7870330,7890200,7903328,7914458,7925739,7939466,7946543,8010116,8024296,8026365,8044635,8127897,8163863,8196923,8215608,8242807,8254110,8258964,8301616,8313691,8416446,8426237,8440808,8443488,8514493,8566464,8650114,8711828,8751812,8765286,8787896,8841613,8878135,8879083,8937056,8985863,8986819,9011033,9060966,9087053,9119881,9144823,9204096,9250454,9256218,9268505,9275018,9293322,9327613,9353774,9355633,9391489,9404298,9423792,9427596,9443718,9453195,9453814,9454241,9455633,9481923,9531913,9540800,9565430,9584030,9598813,9600110,9689740,9697245,9705752,9716052,9726858,9762328,9817788,9838210,9846657,9856116,9901980,9909165,9910586,9943691,10008276,10054672,10067535,10104488,10114058,10118906,10127034,10143999,10203415,10218562,10226354,10272750,10395593,10413802,10450350,10469548,10475641,10507625,10509663,10522619,10548229,10576093,10582032,10583059,10586150,10596667,10632680,10638875,10741152,10836697,10847996,10962985,11010108,11031069,11054497,11068656,11069807,11178814,11211601,11211692,11224544,11228168,11247491,11250549,11274893,11321531,11332518,11337307,11372169,11375498,11387787,11405491,11464404,11508294,11511281,11513832,11518348,11556291,11560445,11567994,11585290,11607703,11634006,11636413,11667371,11692983,11724918,11751082,11805748,11819286,11831771,11887694,11909213,11924400,11939413,11980603,12011131,12053682,12060759,12077510,12094094,12097881,12113959,12121376,12131787,12136930,12181484,12186585,12208687,12208880,12233673,12263085,12294442,12309510,12329024,12344894,12348022,12348309,12359733,12519615,12520728,12537197,12553225,12554049,12554347,12554695,12555086,12555462,12580351,12595526,12628804,12629200,12655121,12660265,12784425,12807791,12845431,12964841,13004886,13028119,13064586,13131939,13133030,13155718,13204056,13310197,13349207,13385624,13385646,13397817,13402234,13411555,13437609,13520785,13571187,13615571,13624631,13774655,13807625,13817433,13886123,13947237,13961191,13965064,13965668,14108501,14129577,14203692,14205827,14346992,14352644,14369636,14539848,14565078,14584667,14664617,14674515,14836583,14988554,15144960,15200279,15209403,15415681,15431538,15477882,15600783,15655400,15655617,15692327,15778539,15850027,15851198,15931659,15965484,16017337,16066355,16101881,16272986,16425755,16431088,16538193,16736739,16743069,16753364,16797874,16887317,16906230,16912916,17048514,17264053,17270763,17367018,17456067,17704935,17745894,17765733,17858644,17880075,17909467,17945607,17978009,18088781,18352630,18759302,19045016,19124267,19259910,19276231,19511492,19548215,20090939,20256720,20418300,20707575,20791803,20974405,21097045,21169937,21483273,21544094,21616066,21708828,22134957,22138158,22665688,22772378,23174789,23663227,23689459,23765181,23863670,23980186,24408253,24424294,24463399,24583389,24624126,25072173,25227044,25374829,25573024,25847187,25994645,26166526,26517159,27528142,27534495,27926465,28063949,28167671,28935993,29215720,29425928,29933239,30402670,30571029,31883587,32728437,32980763,33934798,33966069,34236334,37311787,38136376,39168117,40271709,40926556,41072310,41474812,41662959,42691553,44948147,45118591,45251204,46234906,46283152,46775218,46978039,47138520,47343017,47803984,47861594,48953551,49102400,50248115,51697980,52708253,53145388,53852753,82074871,98236359,103452190,110024800
7000012:5245995,5355339,6188100,6196740,6384008,6473812,6576133,7499017,7652676,7654863,8156725,8350279,8512801
7000013:notfound
7000014:notfound
7000015:private
7000016:
7000017:
7000018:2532121,3207561,4140542,4699834,5325808,5873818,7244534,7441562,7903334,8070842,8573956,9743028,10193371,12193279,13075703,14060518,15429865,16431696,16493591,16584760,17565853,18297122,19860078,19873621,21639568,24896112,27249398,28683122,37441486,37878654,39230008,46702567,49432989,59982726,71367327,83335119,87667775,87687251,87743531,87938743,111416019,116928680
7000019:private
7000020:3778249,5462204,6623532,6706564,6920010,6969101,7059406,8589549,8973343,10128012,10629130,10773479,11232225,12893774,13927519,13958535,14099401,14099865,14608119,14672445,15239718,15580335,15651971,16116096,16596644,16821332,20084715,20441555,21900057,25898486,27506065,29207934,34278562,56249045
7000021:3674318,6162583,6549367,6851509,6983177,7009361,7022567,7142359,7412454,7644615,7727557,7750375,7801815,7863915,7872148,7935467,8085070,8135992,8152864,8224509,8246239,8538654,8591781,8899220,8912002,9078318,9299320,9446831,9468394,9498201,9548668,9999089,10079284,10683394,10837408,11084829,11085548,11106301,11112431,11190032,11222093,11427022,11485449,12129334,12237566,12302260,12425258,12492113,12859144,13637800,13785199,15558705,15833971,16199869,16251033,16568599,20389192,21213688,21615530,29625474,37582451,50958254,54636668,64604542,67917405,94978617
7000022:private
7000023:1659299,3076073,3185820,3204457,3551417,3731523,3748758,3896705,4013712,4046180,4082780,4214129,4228139,4276847,4477419,4516481,4661494,4820328,4847027,4927549,4948373,5114142,5135451,5146540,5312855,5314017,5409678,5415586,5417513,5423666,5469534,5644500,5656620,5721197,5779812,5800790,5856432,5928386,5984142,6075276,6084371,6152399,6190765,6193871,6193903,6221245,6319855,6423670,6479500,6486510,6623165,6638644,6679897,6732467,6759388,6778911,6849142,6856392,6890956,6927617,6946560,7026578,7049648,7056697,7194075,7501874,7590903,7662106,7730953,7785109,7838920,7882604,7901075,7946821,7998698,8211237,8224181,8301230,8304698,8315702,8356158,8498428,8536680,8541021,8591007,8609696,8792962,8877624,8917310,9010194,9133916,9246174,9271313,9301749,9377478,9646009,9788121,9882615,9910401,10095784,10194752,10259460,10279301,10318550,10481663,10597539,10809769,10847556,10893206,10941462,10986765,11088179,11428452,11534185,11591882,11642764,11651650,11807670,11814753,11821902,11845389,11873412,11938853,11947607,12040308,12107837,12112028,12154859,12172063,12206362,12380308,12437006,12692460,13284580,13948048,14007806,14099787,14208042,14338983,14834297,14941854,15123940,15510272,15582116,15743439,15988524,16092674,16189013,16240062,16450850,16892537,17210367,17256843,17376986,17440890,17814922,17976393,18047526,18262741,18437887,18553091,18776503,19634503,19864487,20091636,20185896,20236049,20259201,20450603,20513975,20915990,21341876,21353431,21951080,22177330,22492449,22888083,23022759,23181963,23386124,23566510,23916902,23930711,24023812,24186072,24265341,24328929,25131773,25526988,25604562,25738477,25928771,26520168,26925601,26962678,27033656,27238395,27494542,28474593,29121016,29620493,29848256,29942359,30016358,30293919,30366691,30681296,30957872,31228734,32169412,32573695,32661019,32732259,32957962,33531802,33679799,33806259,34187333,34808103,34922716,35058359,35131512,35296040,35653265,35692346,36138615,36213111,36511543,36753286,36867586,37002982,37312593,37732474,37766139,38235012,38725114,39480914,39486965,39617849,39678777,39708596,40422078,40556895,40820881,40896986,41292345,41347829,41401789,41480213,42177693,43034161,43115801,43863604,45593691,46201937,46557267,46588842,47059373,47306634,47313233,48054282,48586167,49910030,50902218,52914239,55368890,56602242,57660079,58083601,60560187,60702592,60762901,62201887,62210173,62689756,63930170,64522482,65873131,67108881,67846062,68258238,69335719,70344464,75011805,86615181,89244577,89493772,91193175,92237381,94291969,95400424,96114806,100901727,100943981,102792586,103706525,117364394,120393508
7000024:private
7000025:
7000026:private
7000027:2185874,3349770,3837186,3955979,4039365,4424704,4568170,4568532,4849061,5529824,6627520,7740400,8730037,9272015,10544907,11606348,11956768,11982071,13605759,14205774,15076287,15158745,17096137,17705522,17778935,20906575
7000028:7806729
7000029:
7000030:private
7000031:
7000032:private
7000033:6473556
7000034:private
7000035:
7000036:notfound
7000037:2783827,5273065
7000038:3416679,6145839,6353139,9124742,9866392,10221932,10468682,20670543,21569850,23760567,24407141,28132093,29887690,29925036,36405983,43894447,44018954,49330984,51484570,52191895,53665215,55054840,55161608,58467013,63650798,70509905,71776107,74222919,74368042,75771057,77297044,77967924,78184602,79684331,81993142,82318854,84996464,88208956,89302551,93162232,94711023,95529980,101478475,103124966,105228617,109972215,114665089,119247173
7000039:private
7000040:6957233,6957508,7401021,8005047,11484711,11686155,39599488
7000041:notfound
7000042:notfound
7000043:notfound
7000044:
7000045:
7000046:
7000047:
7000048:private
7000049:60489,256793,362193,362440,378019,386209,424560,429847,433589,468011,545952,680018,3422014,3447443,3595556,3687962,4263620,4298938,4299758,4315409,4350242,4473054,4620366,4674254,4727948,4728207,4813906,4820609,4839815,4946524,4972249,5145633,5258273,5316138,5339493,5672902,5675946,5723036,5728883,5764145,5894976,5991462,5993711,6069609,6168312,6183232,6209778,6217232,6270336,6330711,6351709,6469951,6482909,6486554,6538802,6605112,6623667,6631161,6739442,6787674,6808341,6823050,6826373,6833019,6930679,6949029,6993008,7004242,7106415,7117457,7134261,7143681,7159155,7170535,7171594,7176633,7266665,7268929,7276051,7300355,7334833,7400939,7425031,7440910,7454126,7454193,7521443,7545109,7558258,7580328,7595480,7640072,7642417,7651055,7684066,7694818,7711805,7719911,7734501,7754183,7867685,7905686,7907875,7909223,7913046,7916196,7928935,7936185,7940238,7944369,7944601,7958029,7967779,7986181,8018823,8099099,8110945,8116349,8120143,8156414,8183172,8207171,8243284,8302351,8368025,8393041,8470411,8543624,8603813,8647436,8753636,8779976,8795561,8821524,8829508,8843013,8854111,8869701,8876650,8879763,8882729,8951583,8962978,8969424,9017481,9099931,9124821,9153920,9218511,9259509,9287578,9289140,9317649,9318132,9323321,9353336,9360843,9412874,9477887,9490933,9561223,9577975,9590832,9633400,9761577,9772478,9802982,9822951,9831672,9890406,9931218,10073478,10074473,10138852,10159099,10197093,10249785,10405838,10547046,10551079,10566182,10584051,10697856,10760593,10826463,10927989,10930863,10951876,10991296,11036736,11111500,11120850,11264425,11287631,11305145,11505439,11527088,11568001,11693906,11854749,11910590,12121634,12127428,12163838,12259176,12289905,12367749,12368967,12517324,12598143,12770291,12931517,12970758,13010006,13103776,13137288,13142458,13146979,13333175,13362902,13385094,13433669,13564125,13577962,13586596,13630946,13654780,13676653,13677341,13747178,13763788,13771215,13783301,13803768,13827634,13919384,13925636,13961143,14029927,14070044,14134832,14240007,14343566,14347724,14419261,14524720,14539764,14551263,14621991,14634185,14684284,14746297,14792583,14857903,14866326,14950279,14960230,15054049,15094290,15181105,15194737,15226866,15228610,15326947,15382304,15411039,15470971,15487303,15657028,15696106,15894879,16067305,16182235,16383502,16507127,16650776,16682183,16689962,16832433,16965980,17101282,17416130,17610537,17830837,17932010,18106636,18220904,18584047,18827169,18921728,18955925,19067610,19114047,19455076,19510802,19652845,20895280,21036724,21366089,21376987,21424932,21610746,21627327,21690259,21969374,22585839,22742194,22806905,22991395,23169494,24053686,24468311,24901299,27475623,27774391,27959228,28022494,28029641,28290502,28522508,28631103,28747951,28778664,29207408,29542053,31697611,32814727,33024460,34395455,35400059,36718257,36851063,37472839,37804442,38430263,39007153,39128742,39200677,39573125,39684984,39714679,39974323,41235846,41308255,41396131,41645796,41891109,41892462,43860407,44571240,45136930,46798892,46883863,47702172,47727900,48390049,48775973,49115507,49162724,51988174,52627233,56803975,57379585,59736353
7000050:
7000051:1210089,1970941,2077098,3185014,3288812,3440587,3907645,4097462,4097897,4159573,4372036,4540854,4711355,4728852,4733580,4787514,4997417,5286384,5345535,5371307,5445633,5514872,5636379,5685055,5709929,5722671,5743369,5828296,5940384,5952306,6061681,6091149,6276565,6278072,6280245,6304926,6356456,6604629,6655588,6699856,6711200,6780136,6839369,6841682,6846270,6873564,6891084,6931957,6974868,7017465,7169402,7198126,7226851,7233460,7238226,7253381,7316081,7347969,7373852,7382137,7394970,7419346,7499463,7514917,7564308,7584673,7598252,7623618,7624026,7624854,7652895,7654705,7677949,7728396,7825579,7844787,7944419,7971899,8028573,8092806,8115308,8158350,8193614,8395245,8395872,8432751,8458330,8595956,8681340,8697324,8709742,8759909,8772818,8808719,8896968,8903923,8916368,9067109,9094132,9161374,9273892,9328408,9398290,9407732,9428968,9474047,9583186,9772569,9781123,9828431,9877718,9968599,10024648,10157816,10226916,10245652,10607902,10640120,10692911,11046483,11106641,11173681,11283202,11373718,11727285,11778460,11902524,11920757,12526405,13117679,13248103,13386764,14223214,15636442,15747728,17183268
7000052:private
7000053:private
7000054:3070423,4202905,4360689,4534352,4986263,5005384,5024476,5088339,5142437,5151922,5199049,5382151,5562820,6559543,7748763,8318868,10048728,11477657,12933223
7000055:5539076,5964622,6083433,6314167,8628751,10417678
7000056:4032562,5254573,5756057,10555267,10900343,19584568,22202317,22513083,28967001,32068120,33133736,36511872,37434899,39399383,40161052,46190847,47243668,47430504,47468348,59654177,62163714,64073797,67930973
7000057:
7000058:1717200,2764329,2858134,3210614,3744911,4216544,4351345,4389751,4678124,4685421,4715100,4771263,4796799,4827391,4855285,4976934,5004578,5096473,5126940,5302600,5624290,5673561,5700062,5778542,5876262,5943786,5956097,5967327,6017708,6051309,6076717,6158547,6182938,6198344,6199185,6207805,6208977,6215150,6229803,6234452,6255120,6292705,6333200,6356658,6382098,6387856,6394721,6395325,6413796,6420245,6422389,6428194,6433969,6458850,6481728,6517547,6522751,6524103,6544722,6550018,6572184,6579980,6580363,6605474,6618211,6622793,6622843,6627834,6655743,6668570,6670107,6671447,6683485,6705672,6711356,6712522,6725568,6731963,6758178,6765825,6774649,6807984,6812233,6813550,6921295,6922674,6935747,6938719,6956771,6999953,7040210,7064614,7109970,7119686,7166300,7174037,7205387,7219910,7222378,7235604,7242654,7249145,7258311,7260872,7264099,7285693,7292276,7295828,7297740,7301665,7305191,7305254,7328778,7340685,7341897,7346771,7347204,7362580,7371357,7374142,7379260,7414309,7419346,7434351,7452281,7474008,7475805,7478767,7496009,7513661,7513789,7533022,7534365,7550083,7569026,7583252,7587019,7588442,7623058,7625855,7628764,7647146,7651137,7656980,7658006,7659368,7705740,7726228,7726389,7737336,7738680,7761248,7763223,7790372,7793999,7794759,7816136,7847197,7875162,7902683,7904108,7912038,7917207,7953983,7971985,7977898,8007783,8015292,8018306,8018971,8045981,8046749,8160514,8180964,8184170,8200805,8215500,8246668,8291106,8293759,8340434,8341984,8360780,8381202,8403420,8428287,8441539,8445548,8446519,8479890,8483046,8519176,8538805,8542687,8547604,8558507,8562373,8570594,8580605,8589715,8614117,8643081,8669571,8700572,8710053,8760813,8799244,8818616,8821364,8901137,8905888,8934140,8935994,8943601,9063678,9086646,9119371,9181862,9283087,9407870,9422079,9451601,9477609,9512895,9532725,9570129,9591572,9606027,9629905,9645541,9688309,9692454,9721814,9739177,9771372,9833346,9838363,9841793,9841898,9864704,9903095,9931139,9963551,10004371,10118785,10128985,10144489,10172925,10175087,10221072,10331786,10370536,10420123,10519272,10541214,10563680,10593863,10596107,10605778,10644899,10691739,10692867,10720555,10733257,10760854,10766373,10767877,10815649,10839847,10865584,10902063,10915460,11173485,11186028,11200205,11215199,11247150,11263120,11263328,11271088,11297311,11413252,11509566,11769186,11795667,12109736,12278149,12308141,12339545,12359814,12370157,12426370,12456116,12590728,12634387,12686868,12727500,12784275,12808585,12815659,12863067,12958540,12979096,13025184,13058259,13086644,13123189,13204807,13213351,13216446,13232582,13308533,13385527,13415667,13443957,13466234,13481879,13484227,13524729,13547782,13603060,13610387,13611017,13623677,13682040,13739113,13757387,13762981,13769635,13828740,13829690,13874039,13947871,14009685,14092270,14134388,14149399,14181085,14182944,14243903,14296347,14380868,14426200,14436545,14444244,14451373,14453246,14505464,14507504,14552001,14573931,14606858,14633042,14743796,14837050,14862138,14862699,14863638,14905006,14925009,15008674,15011794,15036278,15149699,15164855,15224084,15248213,15308739,15340677,15382201,15416345,15514758,15519460,15604368,15634528,15698625,15751062,15805878,15868019,15958396,16113146,16218325,16467786,16487595,16514531,16672629,16714365,16725786,16924165,16972403,17151147,17201957,17238281,17410022,17457859,17467131,17502193,17822168,17926272,18037416,18302487,18405537,18460799,18528399,18530545,18554128,18710669,18927063,19311922,19579141,19622474,19639426,20121998,20286206,20337069,20415373,21086041,21484790,21521428,21708791,22919454,23833274,24107127,25325918,26684309,27843610,28518519,28868709,29870186,31237703,34398362,35358437,36319884
7000059:3828358,4029578,4109548,4495013,5359959,5620468,5672660,5960403,6074024,6127157,6131685,6191143,6217313,6428256,6814729,6815403,8243638,10761613,15790886
7000060:private
7000061:3029635,3182071,3406594,3717019,3743419,3777870,3849281,3860443,3885460,4010276,4069573,4091019,4203091,4243479,4260482,4290719,4303848,4313416,4373437,4451624,4836569,4891031,4894140,5003767,5030834,5038852,5097723,5165043,5258889,5268500,5350486,5525862,5568261,5580965,5640346,5746702,5832460,5917552,5945043,5966748,6138936,6186113,6220804,6392054,6408520,7041640,7085670,7103939,7201942,7638121,7885622,8093834,8197376,8284197,8317364,9350547,9629193,9678652,9717951,9766870,9797170,9817059,9833973,10003879,10004422,10032199,10452483,10463079,10480689,10730599,10738655,10745405,11017743,11099201,11104503,11117233,11138051,11661334,11749892,12506061,12631026,12682334,13732616,14198395,14218759,15281471,15310961,15357255,15925578,16110463,16188401,16521677,17042078,17389808,17737595,18997032,20265282,20618540,21088425,21228074,21248801,24259882,24902867,26490474,27190003,27255429,27931592,28100674,29835469,30330285,30639170,32977065,33150877,33952586,34332555,35904617,36002674,36039917,36820162,38133005,38416723,39565412,39566056,41067783,41081429,41289097,41826879,41888712,42314254,42598987,43347929,43735232,44185594,44386844,44878920,45546429,45611333,45693220,46705175,48411288,48533609,51545438,51724296,52278236,53712649,54060108,58515210,58600153,58708572,59127379,60807091,60929353,61093163,62438107,63533451,65352020,72431169,73654088,74565553,77566638,77917963,86633936,89618437,92135265,93752064,94797510,97773232,99630136,108049127,109465282,109621304,111439343,114624197,117321087,118060614
7000062:
7000063:
7000064:
7000065:3830600,5063420,5142128,5215780,5216117,5309121,5351399,5460782,5460971,5525154,5638072,5714165,5757645,6052122,6291183,6316204,6924791,7000285,7101208,7223164,8158945,8419609,8587003,10002552,10065322,10152192,10152251,10155774,10160148,10167200,10351537,10785845,10858159,11035396,11044750,11640994,11689309,11796172,12151514,12258879,14724309
7000066:
7000067:4025202,4487812,4856844,5535703,5641019,5642172,6280898,6677582,8384341,8534641,8726468,9905299,10794337,12816196,14546324,16580526,19519582,21221649,21513493,23709894,25133866,25377711,39954004,52189873,64856143,65497452
7000068:
7000069:private
7000070:
7000071:6422443
7000072:
7000073:7730155
7000074:
7000075:
7000076:private
7000077:private
7000078:private
7000079:8153528,8674804
7000080:737676,888106,1000709,1061683,2072279,2902790,14388346
7000081:5757645,5796673
7000082:notfound
7000083:2729624,4949004,6704247,6710433,7294871,7372156,7655697
7000084:4969843,6411946
7000085:private
7000086:6793812
7000087:private
7000088:private
7000089:private
7000090:2920349,3000037,3667786,3670306,3768228,3840593,3898185,3927455,3980780,4064400,4090860,4209686,4283547,4339912,4460253,4959547,4967580,5044901,5070031,5121529,5182840,5199189,5202660,5310781,5473304,5618558,5737098,5889078,5941320,5989759,5990054,6030253,6353872,6510175,6510538,6633787,6676339,6805347,7070751,7321739,7331696,7354675,7357366,7374604,7374648,7503712,7567145,7596463,7615903,7667784,7794757,7867350,7886869,7911392,7963334,7974216,8621588,9557295,10354147,10365558,10444664,10667762,10751856,10795990,10913645,10926305,10959502,11102816,11144038,11275150,11340185,11454533,11620411,11655434,11972467,12389743,12440948,12804174,12878706,14113346,14720904,15011760,16065613,17149314,19223774,21433929,24192590,26502580,27193817,29795639,29802838,31731785,31889705,34665634,39160665,43186359,43923833,46539082,48610026,49301042,56343656,61936065,64360520,77118107,79485592
7000091:
7000092:
7000093:private
7000094:5438133,5839326
7000095:private
7000096:6890223
7000097:
7000098:private
7000099:private
7000100:private
7000101:
7000102:
7000103:191590,206918,207246,225176,234714,242328,274211,282806,293012,321998,467468,510456,645224,935262,980436,1546118,1649177,1722385,1824281,2102468,2104261,2170142,2316980,2390417,2776308,3393357,3559505,3678698,3738317,4239913,4261982,4768987,4820224,4987148,5007413,5042189,5495193,5565090,5839365,5839981,5941545,6134471,6632017,6792383,6899215,7344916,7398033,7497079,8146221,8174740,8453921,8912256,9020386,9136228,9176963,10032834,10033937,10034074,11448579,11452247,11817073,12310212,13096690,13643092,13704981,15159881,16273598,16658685,18520237,23678141,23811732,28548439,61255274,62415943,69615644,83975098,84048260,85464419
7000104:
7000105:
7000106:private
7000107:private
7000108:2314599,2383695,2477417,2548274,2934035,3042348,3107760,3149767,3163387,3304483,3403699,3479663,3498994,3519057,3546210,3554665,3748830,3799479,3833302,3876483,3883864,3954626,3955010,4055018,4138842,4169896,4185842,4265148,4296019,4312393,4320072,4346477,4365189,4368274,4395477,4403443,4477133,4491503,4492670,4566439,4621934,4697206,4716884,4720398,4818997,4827532,4836101,5033457,5068934,5102423,5112252,5135248,5143026,5157394,5172206,5278385,5323400,5355314,5394476,5411709,5451409,5479940,5484006,5484623,5543525,5668561,5678925,5759599,5792938,5887358,6058063,6072164,6102573,6138968,6231698,6310679,6321351,6374974,6442453,6474686,6508256,6514500,6531540,6566517,6590547,6709742,6710168,6711314,6725823,6750335,6784565,6811825,6888594,7031567,7096469,7138801,7240249,7260330,7378184,7398585,7510125,7547801,7610617,7924977,8109272,8175252,8186878,8220768,8243809,8294693,8337677,8358419,8388149,8397991,8411111,8529847,8651264,8703225,8703666,8709551,8749030,8794564,9010600,9031136,9059011,9202955,9320750,9450185,9575834,9615586,9632152,9682049,9707223,9740725,9747159,9754965,9823638,9846118,9847998,9916992,9930547,9936826,9957080,9973988,9976906,9977493,10010425,10110156,10145294,10170432,10182921,10251443,10385129,10423874,10429720,10430572,10508925,10550643,10573296,10589219,10678935,10682416,10714078,10734837,10812558,10867432,10983054,11002798,11063978,11098081,11105374,11118403,11152201,11168249,11255383,11291878,11307748,11392253,11530212,11570764,11610508,11630962,11691371,11706318,11723674,11981410,12006591,12091009,12116337,12211728,12235098,12268072,12436966,12446554,12596382,12602197,12635638,12674519,12834158,12844941,13127628,13132751,13184200,13222745,13307578,13331135,13468438,13626415,13705407,13849314,13857219,13869226,13977871,13989617,14103693,14194157,14290244,14488707,14562769,14712850,14831392,15108581,15111014,15210103,15233321,15533211,15565542,15849486,15989891,16025142,16105041,16288365,16481103,16618266,16650409,16712091,16831832,16902619,17356940,17518219,17559479,17626462,17831904,18174605,18769860,18873880,19020427,19186458,19478771,19798302,19846006,19991081,20026718,20116985,20342386,20348545,20373436,20441810,20642610,20721497,20732589,21283041,21291352,21353744,21800918,22034657,22119511,22283289,22503093,22701015,22772534,23294214,23344331,23410134,23525096,23656566,23934332,23961700,23962166,24489431,24743619,24761360,24803955,24989893,25414483,25449815,25528436,25547978,25556657,26071915,26105417,26132437,26177916,26342248,26546949,26587555,27041098,27168341,27598436,27672080,28004609,28050404,28434610,28479437,28483125,28632423,28840016,28858290,29060102,29180447,29335247,29541562,29852761,29855686,30002834,30239156,30405864,30552640,30693522,30726823,30992520,31018757,31251136,31753812,31782064,31900704,31991901,32122295,32160637,32321683,32407696,32559114,32610901,32745720,32916478,33081233,33141197,33190342,33385659,33844775,34197464,34464070,34645552,34796889,34848883,34902083,35824953,36001670,36015894,36334791,37006808,37267606,37323520,37487957,37739963,37753079,37817045,38261274,38294157,38780502,38896401,39042644,39282226,39462855,39607409,39613700,39893045,39936351,40087790,40329821,40361240,40368413,40469078,40762567,41112590,41132589,41317003,41321605,41360646,41424591,41427942,41643034,41649527,41869099,41907481,42236316,42236962,42296077,42475491,42531030,42624751,43116130,43294315,43538310,43560875,43746246,43813796,43981659,44114063,44172806,44215938,44636712,45099734,45124773,45368246,45641859,45684249,46020312,46027617,46113334,46398914,46604510,46967818,47207465,47297763,47396491,47440453,47618883,47653995,47943534,48010480,48648198,48695982,49011844,49377112,49493806,49596885,49713663,49895867,50048371,50095419,50498446,50768923,51748873,51790183,52220882,52417249,53048818,53292064,53746412,53970349,54185931,54321917,54382127,55895547,56241749,56245641,58155594,58231230,58322595,58800454,60108524,60174534,61633942,61920911,62464130,62627210,63450354,63910109,63917216,64142792,64780997,65252989,65689048,65820583,66306137,66363640,66820608,67676010,68440236,69582056,69662857,72359659,72653550,73546223,73941197,75445682,75925211,76085841,76473096,76798414,77101150,77529794,78088603,78866403,79151675,79585234,82756429,83452478,83533041,84583450,85983082,86656038,86742324,86768450,87425645,87972652,89204302,90549134,97032646,100718510,100744325,102452199,105672693,107422047,110106140,110946324
7000109:
7000110:
7000111:private
7000112:private
7000113:private
7000114:3572067,3670446,3762028,3846041,4064374,4319181,4379168,4382003,4483191,4612164,4634639,4865369,5182575,5303092,5303531,5355432,5397403,5794614,6141512,6318549,6485396,6530140,6682526,6814228,7347505,7352990,7361781,7377990,7426670,7470007,7587017,7631468,7636272,7641377,7729371,7789234,8051712,8053176,8073226,8355589,8466099,8512939,8662192,8664252,8736329,8750357,8796023,8929567,9114092,9167766,9241625,9248189,9297666,9305463,9520352,9644411,9798668,9852446,10027945,10310409,10413937,10667675,10959675,11074058,11167926,12079250,12414962,12460854,12493767,12731988,13148422,13326557,13503723,13588250,13635130,13872585,13901725,14783611,15224957,16068226,17366310,17681423,20158618,23269993,24125015,25784877,26199403,27656734,27881092,28647081,28695089,33006802,36064431,36772163,39183184,39819080,45537255,46245776,49070087,52654572,55565436,63211148,64763858,94997204
7000115:notfound
7000116:
7000117:private
7000118:private
7000119:2324356,3118459,3968145,4276665,4352348,4553129,4719206,4901157,4916335,4931034,4946503,5667634,5728725,5731634,6041326,6200485,6449142,6820293,7221232,8095889,8223015,8602695,8603755,8638076,8755154,8856568,9177283,9234067,9326013,9326136,9439343,9458015,10161131,10285445,10365186,10789486,11312595,11510627,11625961,11636335,11672979,12244900,12550255,12620734,13166643,13809544,13918690,14259983,14601592,14673448,15827630,16131560,16408391,16420372,16431734,16556322,17178750,17406545,17476176,18418585,18462592,18723393,19129488,19194851,19733649,19858441,20313554,20325381,20450869,20816302,20900008,21400027,21438329,21662343,21744213,21839301,21884018,22041669,22304639,22582123,22622178,22952472,23741014,23980870,23985020,23988596,24110877,24147575,24286753,24402655,24707558,24804391,24996756,25151459,25234373,25526354,25982770,26023917,26374648,26430517,26738551,26768564,26772421,26965638,27012119,27129240,27149449,27159074,27255895,27259265,27309236,27391099,27636096,27914524,28331931,28370123,28476672,28902326,28954749,29108603,29187118,29405746,29420374,29436091,29469718,29583272,29871923,29914533,29957184,30063738,30076976,30150103,30238415,30266713,30403095,30633313,30764349,30788023,31011691,31036027,31678632,32002530,32029859,32299836,32945533,33028471,33459364,33487523,33693523,33943186,34230549,34306426,34400269,34616388,34640674,34667517,34878711,35341361,35372752,35380505,35671426,35786056,35978422,36130028,36195373,36412706,36769871,36843530,36843824,36895653,37067094,37067738,37220173,37346644,37392654,37473161,37517610,37559682,37664435,37697824,37870810,38323543,38493936,38573893,38665107,38665414,39201453,39359910,39405224,39453973,39479538,39944046,40444019,40495208,40617500,41007629,41051397,41953298,42023306,42255034,42360545,42449898,42872297,42988925,43920855,43994755,44331238,44493295,44676763,44709607,45025797,45346155,46137231,46185223,46307993,46382787,46922038,46973081,46979948,47138640,47792156,48276795,48299795,48371430,48393252,48474529,48728244,48729606,48893255,48995413,49624640,49850095,50063617,50887999,51745972,52068654,52579826,52992795,54696164,56025178,56070010,56073303,56282519,56507522,56790274,57376819,57982459,58452179,58688158,58991082,59119398,59387767,59402222,59415535,59564159,59805304,60113120,60299652,60414701,60878551,61253557,61572579,64793737,66104132,71342123,74970557,75403243,77318969,77923411,78259024,82969935,92639351,94409052,95050836,97484495,99507538,100902490,103092222,103342027,105006259,106784015,107657341,108539293
7000120:private
7000121:
7000122:
7000123:3702270,4514717,5415061,5819840,6150626,6614968,7451673,13394104,19282783,35043479,43383666,44089052,49850500
7000124:3110604,4476532,5534220,6165304,6323722,6535547,13772885,33172427,41290629
7000125:6999996
7000126:notfound
7000127:private
7000128:
7000129:3453416
7000130:
7000131:private
7000132:private
7000133:
7000134:4798530,4814597,5345641,5868547,5892300,6332154,6431049,6813821,6926169,7200663,7213114,7276699,7694957,7757321,8022018,10208935
7000135:private
7000136:private
7000137:notfound
7000138:
7000139:
7000140:4005429,4352590,4365793,4723816,4834299,4855540,5045466,5176750,5309825,5366273,5869796,6348584,7062443,7187939
7000141:notfound
7000142:2420684,3330420,3393508,3471238,3807106,4088906,4131725,4374950,4486641,4566872,4624524,4662187,4908907,4987494,5595768,5846498,6082816,6090269,6098362,6102299,6211852,6246253,6282290,6288137,6300633,6312073,6349144,6446771,6458734,6485799,6543298,6549713,6563534,6600431,6605351,6659054,6665015,6670740,6703954,6705900,6711724,6738136,6764058,6778941,6794147,6824917,6835474,6868165,6869506,6876150,6962195,7037821,7061749,7067877,7084452,7131092,7212943,7213661,7235535,7257150,7345201,7384287,7385624,7387884,7429058,7429140,7446904,7473937,7482732,7505499,7510809,7559445,7667131,7694630,7823411,7844038,7937091,7941097,7953942,7960343,7963331,7991445,8009804,8076749,8168939,8201162,8303895,8359957,8469097,8485780,8546318,8663500,8665630,8712178,8720855,8834233,8982644,9014007,9115753,9200640,9604621,9759475,10137461,10144507,10902148,11013232,11493159
7000143:private
7000144:notfound
7000145:3161567,4946923
7000146:3821614,3885276,4090232,4192754,4335729,4338597,4428742,4591505,4710758,4717720,4786293,4871340,4909316,5071072,5107374,5327655,5327935,5338963,5479741,5510294,5671909,5757635,5790219,5820274,5828233,5956824,6050887,6104553,6196581,6208866,6257961,6346355,6408326,6559544,6573325,6757079,6757133,6815143,7000261,7096842,7309622,7386461,7555694,7608913,7653861,7726012,7763507,7963666,8063962,8175542,8462469,8520183,8713946,8748986,9018877,9133473,9203697,9290883,9377975,9444790,9478345,9530279,9598413,9604744,9702841,9804019,9809461,9833972,9838685,9868755,9902698,9916932,9991573,10007569,10010093,10156836,10160374,10163709,10225497,10264002,10299730,10366572,10399297,10410757,10427231,10472888,10476085,10582059,10609833,10866724,10874589,10931995,10936413,10982817,10983509,11023590,11082411,11146552,11176000,11202265,11317609,11355238,11405415,11441077,11456797,11494234,11538918,11725252,11821151,11822303,11882052,12049699,12210181,12514176,12635550,12704608,12833930,12838959,12889152,12921580,13120455,13443006,13584164,13735905,14145472,14241768,14252833,14425314,14578597,14857438,14873796,15015578,15951191,16078134,16221539,16741385,16742095,17046270,17382001,18047783,18146726,19167994,19218604,19293207,19542470,19933170,20121408,20157415,20241870,20242407,20287985,20629121,20830437,20900271,20964841,20982342,21090614,21250394,21350232,21545820,21924802,21940770,22047485,22342722,23251119,23737369,23762998,25394768,25553396,25752088,25754093,27333903,28598619,28944186,29823902,31243761,31519987,31565927,31787243,32149992,32540758,37204557,37866398,39077026,39341464,39471773,39517064,41662008,42106948,42788380,43805398,43806839,44411768,44806728,45382361,45521107,48274473,49259184,49398776,50501393,50835819,50917738,56390497,57367093,57719383,58559452,60019662,62335597,62372833,66738092,69995907,70418174,74305209,74719372,75814933,85183753,85351870,88784280,90009060,100175835,104229074,104276833,116149357,117893031,118552153
7000147:
7000148:6084871,6192558
7000149:
7000150:notfound
7000151:private
7000152:notfound
7000153:notfound
7000154:4116751
7000155:6355084
7000156:private
7000157:2783271,2884169,3892344,4023273,4081507,4168152,4285811,4771953,4835488,5088663,5331866,5340535,5375905,5482695,5498511,5524208,5536103,5582334,5810960,6213362,6264657,6443927,6589490,6667203,6729357,6845418,6858529,7161397,7166656,7304345,7411324,7494952,7548821,7730533,7907905,8033972,8197346,8595042,9140324,9791025,9883416,10041081,10052695,10134142,10319673,10343506,10580635,10846024,11275385,11380366,11696015,11862355,12327170,12395027,12476295,12542803,13023911,13579332,13614936,13639902,13983877,14229975,14555313,18168047,18459941,20161365
7000158:private
7000159:private
7000160:5559924,5678526,6017848,6223362
7000161:
7000162:
7000163:4986181
7000164:
7000165:notfound
7000166:notfound
7000167:notfound
7000168:858731,2676473,2993706,3205949,3868464,3906588,4017671,4072367,4191703,4379573,4409815,4526448,4836018,4929483,5002452,5045432,5071423,5102284,5218315,5242132,5364120,5513256,5515384,5843871,5987790,6038072,6043431,6160624,6227072,6317718,6595477,7271876,7792945,7847705,7872787,8265890,8424443,8450623,8487723,8646631,8946368,9269700,9557298,9611163,9908277,9909144,10013736,10374556,10488545,10773716,12589795,13597342,14624324,14843596,14957260,14991107,16469725,16559415,17296162,18068301,19516963,19657614,20054003,20690645,20827728,21315811,21519718,22307745,22605689,22893050,23292421,24015413,25203586,26167060,27102010,28329420,29057786,29058548,29321950,29421886,29720734,30493398,30589349,30617055,30661957,30740946,30980897,31015751,31366034,31569682,32465645,32930380,33031772,33997524,34911368,34952198,36519672,36659186,44942263,45164618,45354314,46374358,46851042,47768461,48184202,49153396,49275408,50230537,52842098,57184209,57866661,59059918,59222492,62007485,67270873,72587611,73280958,74966050,85202450,85693207,86328451,86329195,86877257,87674986,88677050,93449122,95580043,98447502,100845342,101988879,104233662,108980382,109529565,111678552,113776213,122875481
7000169:296075,719974,1375186,1462828,1498476,1765173,1879378,1948145,1956452,1970058,2087240,2162849,2367901,2447553,2591637,2711456,2795449,2824759,2939901,3079453,3114682,3156500,3242682,3252656,3275806,3374477,3433418,3453567,3457250,3481866,3505243,3576442,3603497,3650258,3771026,3783473,3807496,3836259,3856010,3871054,3892127,3902536,3904962,3986472,3988884,4015283,4043822,4078977,4096204,4113616,4169884,4178691,4220700,4269610,4281401,4282251,4342506,4346951,4354083,4354896,4374595,4402221,4432521,4434389,4483188,4526977,4552079,4585209,4652475,4661006,4665362,4683783,4814141,4839458,4852219,4853902,4856798,4875383,4878759,4886132,4889291,4929727,4932897,4934343,4955888,4963077,4976041,4994881,5032986,5152084,5165322,5167105,5211008,5226218,5287286,5325517,5363996,5366921,5368169,5369345,5395448,5395847,5434084,5538181,5539742,5544567,5548779,5569599,5587679,5619141,5625471,5625741,5654225,5655053,5670434,5675305,5682670,5699533,5751367,5760748,5764520,5799429,5823987,5900198,5919110,5944476,5970969,5996562,6033096,6060207,6087253,6089228,6119525,6136619,6157507,6161975,6169421,6177162,6182088,6222050,6223937,6244530,6246212,6247460,6266272,6267999,6273224,6274092,6352311,6363003,6377144,6390557,6412596,6442718,6453980,6485741,6562793,6600062,6632610,6691275,6707598,6722234,6723917,6756730,6780044,6813622,6851015,6861551,6894065,6901069,6915243,6927532,6931617,6935844,6949044,6973408,6985738,7012294,7025225,7033978,7037038,7053922,7061259,7080585,7210409,7239680,7250536,7288375,7325542,7396975,7437481,7450195,7470450,7472449,7481056,7509541,7524261,7546262,7579401,7651219,7684820,7705230,7726406,7727237,7749669,7753491,7756716,7793449,7816177,7818907,7832531,7849675,7960181,7984794,8012915,8021915,8027840,8113951,8201837,8259264,8437680,8506416,8516676,8522060,8527190,8539606,8683792,8685610,8709270,8774673,8805176,8814917,8852423,8936019,8951281,8952768,8995067,9061444,9088509,9164003,9184527,9227379,9245479,9266113,9273962,9281752,9282225,9314824,9328341,9348074,9393072,9455973,9471085,9482062,9509276,9512305,9573361,9610685,9611765,9680687,9709786,9755879,9775549,9780016,9798165,9821443,9865508,9986558,10017660,10037025,10046161,10052977,10092394,10105204,10112426,10133255,10211764,10230071,10352570,10374620,10513086,10626715,10680865,10691353,10732766,10751158,10751868,10774019,10785143,10821613,10851316,10957339,11001277,11098602,11148776,11210191,11225246,11290491,11369748,11548248,11573600,11665596,11667907,11697260,11726924,11740689,11756404,11769857,11780182,11840141,11902140,11975314,12073465,12120002,12141582,12158442,12331752,12343132,12385210,12524714,12731070,12818691,12827327,12834302,12870719,12943897,12946363,12974741,12998134,13113026,13191872,13296761,13308345,13308376,13355471,13368269,13448583,13454018,13509432,13557004,13579995,13710874,13715713,13769437,13784446,13825270,14008842,14133690,14181657,14183707,14188318,14241777,14277188,14454335,14456093,14716710,14723884,14808876,14815105,14815725,14845135,14864627,14922270,14982892,14991357,15092934,15321724,15421006,15499863,15680622,15684150,15711012,15787148,15871298,15973668,16192463,16342131,16881558,17072837,17086519,17134762,17167215,17372544,17427593,17716035,17721339,17979887,18065288,18172420,18673186,18803864,19478992,22678015
7000170:
7000171:private
7000172:4505146
7000173:private
7000174:private
7000175:notfound
7000176:private
7000177:4184277
7000178:notfound
7000179:private
7000180:
7000181:5193290
7000182:
7000183:2635815
7000184:notfound
7000185:
7000186:
7000187:
7000188:557236,3468833,3885641,3983582,4480281,4840798,4959911,5116917,5149674,5189804,5202878,5283278,5287889,5351860,5380643,5387800,5409481,5478214,5736032,5776411,5793468,5871835,5995019,6005685,6134266,6160000,6205321,6262581,6265199,6265998,6294303,6598648,6615284,7048524,7083147,7202695,7230208,7301973,7305842,7320053,7321640,7362269,7839967,8119430,8701763,9121450,9288142,9370724,9470789,9530603,9600116,9627539,9899063,9901929,9928088,10049041,10127545,10317348,10400768,10426426,10426475,10443449,10504866,10533768,10601828,10684174,10788586,10835552,10893854,10906867,10965770,10981824,10985522,11056304,11089960,11134323,11147209,11164345,11164582,11285157,11367297,11418940,11456081,11461022,11483494,11529113,11586515,11806029,11938188,11990826,12134371,12252435,12288236,12306289,12320692,12405918,12556237,12620854,12866142,13064652,13113837,13167052,14025821,14309904,14612631,15549982,15550140,16388563,16564063,17202562,18522051,18665765,20714848,26519424,26832083,29026279,29154911,37035648,37240281,37243025,38788145,39179188,40985066,42275905,44192006,45498116,47046382,47903801,49691273,49749151,52247949,55476704,56635497,59112420,60269737,62249487,62557223,62982791,65132143,65688143,68889281,73743207,74291523,82128135,87337473,87831094,89115605,92782568,96476954,97324868,102695398,103445684,112370223,113847462,114606749
7000189:
7000190:notfound
7000191:2250711,2519908,3645617,3649628,3747812,3801999,3895644,4029942,4108362,4391927,4483894,4518440,4919393,4928879,4967874,5036564,5041094,5063007,5083433,5115154,5522708,5675426,5680917,5780540,5910220,6062228,6125286,6381550,6421153,6565684,6851425,6866009,6969664,7369031,7492241,7523510,7527910,7756166,7903297,8078583,8437201,8643463,9020550,9293136,9408879,9538018,9717822,9924098,9992790,10168024,10178742,10194810,10307591,10398723,10673320,10688021,10701826,10709045,10793587,10882404,10886123,10924986,11195411,11197158,11349605,11805125,11889578,11991162,12038201,12209105,12254171,12273963,12339783,12423641,12512144,12902059,12937442,13199697,13289001,13321564,13365686,13382752,13812946,13964922,14345796,14456476,14619095,15257863,15719721,15747568,16430162,16914092,17326981,17370830,17613914,18265809,19252334,19806383,19915296,20450741,20901398,22156585,22495571,22545428,23778639,23853811,25834824,26312323,29214351,29921123,30395313,30633834,31125296,31267098,31869674,34487807,35406930,39045833,39282127,39318259,41543721,42899389,46677197,47067015,48075296,51109765,51498411,51688359,53810710,59547002,60013536,67087702,67536024,69084246,79913601,95891763,103404240,104293509,106407314,106683311,112833272,113269425,116449745
7000192:notfound
7000193:private
7000194:2000010,2426160,3041277,3109887,3549252,3646402,3957175,3992301,4480641,4816672,4854021,5341353,5476270,5542046,5688324,5705205,5739397,5868451,6065883,6094647,6244770,6489162,6506168,6613461,6828484,6873748,6885580,6889646,6889872,6979147,7087109,7093744,7293476,7329118,7650226,7704946,8369582,8457753,8620626,8768047,8970277,9052844,9237536,9829102,10151072,10203840,11137888,11200516,11230913,11298617,11386531,12050157,12590261,13737834,14061068,14065876,14791353,16256514,16643263,16647489,16860950,18943999,19097614,19545669,20072520,20149845,21050248,21514620,22091777,23980421,24544193,25325510,25673394,26419843,26440024,27008635,27103597,28190141,29405354,30430084,34239762,34265430,35004465,35279146,35382277,36310411,37553154,40037005,42622728,42885122,44844958,45143967,45942281,50023598,56625190,62891295,63325777,63970939,64221280,67882496,79553307,82612651,84150433,90856097,103510658
7000195:
7000196:notfound
7000197:private
7000198:728176,1212140,1403847,1607618,1791311,1835958,1984375,2012662,2075463,2078028,2106843,2146874,2169789,2271900,2273840,2326721,2424620,2450715,2456852,2462041,2475331,2492094,2507158,2546545,2547494,2579336,2585620,2602775,2638992,2665201,2670512,2672177,2702360,2744797,2784340,2809716,2816717,2826886,2900315,2927127,2938450,2951268,2963284,2979445,2987375,2988767,3067396,3068096,3073599,3079358,3103923,3106801,3107815,3154560,3159908,3165914,3184337,3217160,3240232,3242653,3244126,3278473,3312080,3324831,3334847,3362572,3375499,3381086,3394087,3395791,3403239,3416351,3419245,3433244,3433926,3446351,3457830,3482678,3531599,3558491,3560223,3586386,3625174,3656800,3683460,3703184,3713682,3768327,3794489,3796881,3827518,3830695,3834276,3838883,3866542,3881496,3889549,3891851,3895060,3920749,3931851,3985432,4029625,4033760,4071953,4093019,4101653,4134057,4187001,4190129,4203264,4234010,4267607,4268109,4313267,4341989,4351967,4409247,4414722,4439210,4461633,4473903,4474530,4474881,4510826,4511044,4518390,4524173,4537259,4550152,4551067,4556364,4581964,4592003,4602379,4649540,4660081,4671537,4761371,4807794,4810618,4836600,4888699,4910406,4963401,4979290,5032609,5087253,5107748,5115053,5116902,5139887,5141076,5167752,5185961,5187772,5196506,5230768,5264233,5280299,5300347,5328764,5332649,5363120,5364959,5380972,5387498,5433069,5449241,5450575,5451213,5452397,5459239,5508813,5528851,5563303,5650727,5660957,5701777,5726092,5738139,5755425,5760666,5765062,5803192,5836260,5944059,5956112,5962048,5981525,6056610,6070546,6109314,6138740,6141744,6214642,6216503,6284936,6292337,6325207,6351407,6367630,6383673,6441318,6466782,6540990,6634037,6669405,6712218,6728066,6793513,6868561,6899570,6953665,6961504,6968993,7012785,7046529,7069480,7108119,7123545,7178292,7200858,7221695,7285107,7285418,7348665,7369504,7496004,7513870,7552349,7604707,7631658,7636040,7660810,7679575,7686560,7725169,7765510,7833305,7837547,7843529,7844352,8021281,8047092,8084677,8119900,8122148,8124943,8146462,8258415,8308418,8425133,8426604,8465503,8477967,8690456,8822772,8996780,9041276,9177967,9179300,9350593,9368454,9398370,9402237,9418490,9461696,9501785,9531800,9604236,9760524,9776774,9792089,9794409,9833245,9849991,9960726,10074829,10089887,10103155,10155636,10346660,10413324,10492191,10494508,10497888,10530692,10653165,10665838,10857811,10863201,10895778,10910358,10951617,10978938,11092261,11140066,11171816,11223072,11283976,11425697,11523312,11604875,11616461,11621441,11640898,11826570,11876758,11944693,11983963,12167482,12348467,12388974,12471107,12532611,12783661,12851721,12869120,12949944,12973182,13085628,13185366,13214487,13733475,13766437,13782526,13853582,13927107,14329378,14522093,14550650,14592217,14856985,15016851,15184032,15303849,15363436,15542663,15556549,15825721,15849657,15879425,16216400,16270064,16340302,16352216,16460807,16545642,16657357,16710480,16949322,17091691,17136853,17243207,17287733,17526506,17677699,17695840,17699883,17790406,17806339,17898017,17999267,18000771,18022121,18296465,18372289,18601512,18810139,19144151,19224138,19247714,19442516,19612452,19807523,20125974,20131005,20471919,20574980,20726201,20835803,20933472,21048562,21151028,21319146,21746096,21770032,21994962,22392496,22538243,22647200,22736416,22743401,23501583,23507577,23578641,23641020,23666290,24527953,24557460,24948250,25402829,25884258,26532653,27208795,27272340,27502205,28260807,28706667,28706671,28982284,29405776,29464770,29504495,30125748,30150170,30852025,32298005,32326111,33168525,33254432,33410457,33679555,33965675,33985649,34326194,34358693,34517524,34614572,35362162,35562592,36633288,36754831,37957551,38017066,38110795,38414106,38568684,40548635,40575680,40588433,42794297,43012410,43465072,44622168,44806795,44926053,45178129,45239456,45514655,46222876,46326447,47404284,47459925,47560238,48325791,48613999,48798990,49247614,49263385,49324222,49661232,50028309,50615283,51142750,51345910,51777152,52639930,53269821,53395171,54160695,54187228,54254299,57700590,59307698,59515856,59548190,60316738,61754560,62434156,62988391,64107735,64126872,64607786,64955522,65172520,66234254,69494186,71470542,73049998,75835200,79708856,80328193,83706786,85896943,90096739,90789681,93144560,95856557,100127802,100659262,100688687,102891695,112291545
7000199:private
7000200:
7000201:private
7000202:private
7000203:
7000204:3312263
7000205:
7000206:private
7000207:272059,632499,870165,877616,1561320,1901513,2099486,2105043,2162006,2300719,2328583,2338102,2372411,2390970,2492300,2583565,2602045,2622572,2630093,2643041,2650837,2703571,2719651,2729070,2729834,2730596,2758712,2777467,2791421,2797019,2831387,2854071,2930995,2933591,2941211,2973765,2977001,2985663,2987278,2994449,2997178,3031315,3056470,3094809,3100777,3105323,3114149,3125256,3130086,3134474,3136468,3159149,3218355,3247773,3248199,3251084,3256511,3262494,3287187,3345760,3349028,3350034,3361551,3367930,3392841,3449645,3450589,3476612,3485115,3486135,3506943,3507612,3513445,3538882,3542714,3564751,3590873,3612593,3678693,3702769,3704325,3708051,3719963,3732420,3743246,3747172,3766751,3795415,3848144,3848515,3852174,3852783,3856600,3857110,3868325,3874080,3877786,3881325,3889436,3895399,3896565,3899126,3902107,3906652,3912175,3917873,3947283,3949990,3952074,3955101,3974243,3974557,3978784,3979266,3980000,3981325,4003232,4010655,4013019,4013287,4019030,4020781,4021737,4028863,4033035,4033783,4043998,4052345,4058607,4060291,4063370,4086447,4091068,4104139,4110175,4134805,4142432,4145045,4150733,4167368,4185281,4205492,4206245,4206985,4207611,4209832,4216727,4218257,4229283,4230919,4237366,4240679,4246955,4247314,4261009,4267592,4288872,4288947,4289362,4292893,4293947,4297374,4297683,4308400,4339606,4345780,4350050,4350923,4352301,4352322,4361602,4365440,4376505,4388080,4398990,4401006,4427149,4432262,4447719,4448857,4464207,4472401,4488205,4491693,4504106,4547244,4554263,4563309,4591866,4595838,4608498,4637552,4658685,4682219,4692142,4695922,4715242,4721630,4740688,4771819,4795286,4815289,4815379,4835775,4851195,4861807,4875029,4897029,4908781,4910953,4934818,4946620,4952756,4954310,4963628,4977878,5008508,5011995,5012074,5014468,5022210,5041431,5051222,5051321,5055917,5065277,5066106,5075893,5085283,5101177,5134801,5149614,5158279,5160466,5170696,5176256,5178431,5194215,5195919,5204901,5205177,5230202,5246954,5256709,5273644,5277008,5300091,5300347,5304377,5305932,5307792,5310760,5315328,5325384,5330722,5334220,5335765,5336494,5343670,5358476,5359294,5360477,5360557,5381992,5432764,5442037,5451202,5480434,5490148,5502056,5511485,5537957,5553503,5570516,5621579,5643430,5647583,5654098,5659234,5675428,5676560,5744270,5748007,5749036,5753792,5761109,5789850,5793425,5798100,5803235,5832543,5839047,5887611,5889702,5891318,5891735,5900955,5942362,5980129,5987323,5988014,5993117,5998200,6004532,6015316,6042640,6053363,6058626,6067472,6067552,6086083,6092887,6110858,6119019,6129200,6137755,6156152,6181070,6190023,6200509,6204408,6223077,6235299,6244253,6251184,6263346,6295887,6301945,6303056,6326403,6327527,6334621,6341244,6356170,6380666,6423835,6469476,6522116,6533568,6559367,6575418,6588757,6629969,6635505,6654520,6673538,6682145,6689872,6699400,6706519,6772340,6809187,6880931,6895187,6897980,6901396,7001840,7064145,7066997,7075437,7079690,7087773,7104894,7121804,7156339,7162812,7171996,7192360,7192860,7192962,7196090,7206902,7219778,7231331,7243588,7257368,7267117,7299281,7331642,7348835,7386420,7393380,7441937,7443682,7445651,7491084,7491912,7505465,7524252,7557694,7607545,7616374,7632042,7639732,7653166,7693925,7700790,7705839,7733237,7756933,7761647,7782711,7809475,7845190,7860111,7863578,7887692,7965969,7966944,8003191,8045710,8046654,8059810,8172489,8175295,8340377,8732116,9569593,10781309,10792823,11395882,11758858,11816238,12014212,12167452,12448978,13004326,13081944,13207679,13431938,13470075,13589098,15819331,16304875,16597643,16959993,17367370,19144151,19178928,19259511,19815706,19816257,19825385,20208958,20550835,20691537,22109997,22420596,23344307,23381786,28401850,28982284,29001709,29325421,30199816,31401126,32035641,34713854,35233902,35384378,37827044,38036479,39349791,41964409,42109486,49955679,53707426,58194245,58544302,58661372,58760482,60910113,62124493,66727517,68308994,70098449,70437328,72354043,80682359,83154393,86816996,88348005,88428558,89109023,96312479,98252870,100423088,102273857,102477379,103705724,106183633,108450183,117604065
7000208:
7000209:
7000210:
7000211:private
7000212:private
7000213:notfound
7000214:
7000215:1554295,5341197,5408539,5473257,5671264,5748240,5960343,6120901,6361126,6442613,6524027,6591819,6602099,6656319,6760225,7204216,7299656,7590763,7701079,8208355,8364003,9021143,12279260
7000216:
7000217:4166180,5126561,6604566,9800650,12415193,13138099,21747814,22576032,22806588,25226624,37046728,45601300,56706995,59327921,79938844,92841149,108808760
7000218:4721312,5223430,5332695,5409983,5414318,5507317,5534070,5618527,5884639,5911372,6219461,6348799,6349218,6422194,6760547,6886193,7086154,7774451,8070794,8424717,9168748,9750399,9750525,10079748,10467485,10603696,11293624,11384209,11445290,11947955,12057214,13615233,13713673,13826557,13943786,14346979,14469935,14541469,14560257,14685348,15008615,15452955,15586785,15683452,16229909,16445050,16636000,16832135,17161297,18528632,19295389,19329451,20558346,20811047,20880029,20882155,21371111,21717748,22066330,24015494,24644792,26718800,27009959,27120138,27847120,28575339,28589085,29077511,30285792,30286316,30359721,30794934,30885267,31327983,31901166,31939397,32655117,34276611,34767624,35143923,35765174,35950820,35995012,37771655,38336334,38430478,39064051,39306188,39530337,39890518,40365187,40550210,40807073,40888124,40947425,41022950,41109094,41324696,41477639,41636664,41944361,42457051,42530699,43254032,44290442,45264861,45347395,45812674,46898026,48803652,49264139,50075883,50611051,50971173,52790887,53206073,60325919,61262423,61800912,62458094,63703416,66240003,68714803,76510622,76987873,77632029,78857087,92447759,96319123,96588430,103204769,103488844,106271011,106391420
7000219:
7000220:private
7000221:3217393,3256815,3448497,3620640,3704538,3827134,3837650,3935593,3985580,4026188,4027349,4112120,4112645,4163987,4218803,4261944,4312583,4374453,4419404,4459018,4642431,4644968,4751107,4769566,4774020,4783772,4811600,4819903,4838449,4855285,4878047,4941578,4968578,4975051,5017920,5032545,5105598,5121110,5129235,5141640,5209524,5226203,5238694,5279027,5345605,5360635,5363430,5481946,5518108,5532270,5549023,5594712,5648344,5682203,5719287,5735079,5761845,5806181,5809325,5824532,5848182,5861301,5878324,5883660,5886538,5891011,5892559,5895147,5921330,5958605,5969837,5970485,5989826,6020380,6025833,6054879,6063209,6128053,6132465,6133694,6140864,6142864,6147873,6196448,6219500,6242263,6248110,6253581,6278072,6285755,6289019,6295728,6300803,6301485,6312253,6316270,6330797,6331924,6333670,6334577,6336329,6351578,6352334,6381433,6391028,6398650,6417537,6420392,6422389,6425393,6426764,6427820,6431928,6436104,6440893,6443173,6455699,6472614,6479873,6482673,6485744,6493557,6497899,6512077,6514637,6514764,6515280,6515643,6518891,6523563,6530539,6531323,6546062,6559610,6563076,6565969,6574713,6586976,6594133,6600823,6606368,6606966,6618318,6620727,6624605,6628657,6628929,6629181,6630382,6636211,6641932,6645650,6649409,6655886,6666678,6668571,6669250,6669299,6669776,6676269,6678471,6678612,6683044,6691026,6695705,6706677,6706837,6711912,6725169,6725404,6726317,6728256,6731013,6743933,6748994,6751135,6761740,6762103,6762895,6765881,6774293,6774865,6785629,6786291,6801950,6809416,6809864,6816037,6816843,6818288,6819899,6824014,6824917,6831162,6831203,6832293,6834759,6839389,6840395,6859218,6859314,6866170,6869915,6888813,6890074,6892011,6897782,6902494,6903952,6912268,6924074,6925482,6928285,6932247,6933009,6945968,6950851,6957296,6967149,6969512,6970324,6970523,6971185,6974297,6976634,6999761,7013395,7017838,7022053,7028853,7030455,7032750,7035290,7046688,7054438,7057239,7057254,7059799,7062453,7064614,7066360,7067967,7068023,7074056,7084532,7089376,7091687,7097814,7099285,7104186,7109664,7128296,7134990,7135105,7144105,7154795,7161146,7171248,7176404,7176746,7197538,7207958,7211041,7216040,7219910,7221159,7239592,7241123,7249079,7255190,7260872,7265714,7271875,7285693,7287945,7300941,7303476,7327318,7340685,7344543,7347102,7347873,7354646,7366996,7374086,7375304,7376035,7394229,7398778,7399028,7401908,7421229,7422763,7427225,7434847,7443432,7451518,7461059,7462577,7464152,7472640,7478498,7482393,7508987,7510957,7523879,7529511,7533126,7533670,7555096,7567457,7569026,7619626,7632216,7633210,7663400,7668214,7672571,7675533,7689674,7697983,7700002,7700618,7703164,7704166,7704908,7710145,7711805,7722577,7722907,7737750,7739036,7756604,7765609,7769561,7775553,7789787,7798851,7800836,7803281,7804903,7810391,7829167,7830087,7843320,7843880,7848917,7867122,7873218,7880762,7892537,7921248,7949172,7962683,7978151,7979596,7999800,8004290,8008062,8011240,8012090,8012391,8017982,8022095,8022153,8024485,8026576,8045271,8048238,8051321,8053155,8058096,8070799,8074901,8088736,8089263,8096254,8100696,8108967,8128477,8133561,8140751,8142895,8145973,8147145,8148088,8167350,8180964,8188499,8201152,8204696,8216212,8217667,8225960,8237371,8251438,8251942,8253318,8254559,8257140,8267290,8288507,8300509,8372129,8383852,8422734,8450437,8463984,8471176,8491380,8514303,8578308,8580200,8641589,8669778,8814204,8825517,8835492,8955695,9039722,9112357,9240288,9369391,9407428,9443988,9465551,9672012,9721342,9787985,10888707,11606720,11738076
7000222:1141964,3895530,3974875,4055005,4460765,4624918,4783368,4902670,4964054,5415740,5974406,6024022,6212975,6252493,6432145,6634589,6714004,6842881,6970467,7056248,7068459,7125109,7181218,7199167,7355012,7462387,7702358,7711786,7825280,7830572,7894936,7947918,8277068,8601030,8611248,8622957,8671946,9238245,10645603,13925510,29565490
7000223:notfound
7000224:2647259,3000765,3292765,3472667,3774436,3777899,3799788,3834170,3988492,4068704,4113066,4188619,4229359,4240931,4243573,4244318,4336873,4346344,4448848,4454416,4481780,4545680,4548047,4679531,4707683,4727911,4728725,4730137,4730285,4746792,4767375,4863777,4870158,4967328,5008887,5014158,5034634,5066074,5067225,5070075,5095539,5119854,5142910,5153094,5155843,5208407,5233731,5256104,5271695,5304701,5312961,5335228,5349207,5393689,5421933,5424652,5430665,5440836,5462437,5482468,5512837,5528885,5532588,5547548,5586143,5607507,5622257,5644254,5717951,5732102,5761972,5773739,5778829,5796742,5826053,5844556,5857262,5858849,5891534,5904811,5906530,5912153,5915848,5927935,5943168,5984426,6073790,6111931,6119079,6141304,6147972,6149570,6180204,6184120,6206766,6207254,6211993,6217427,6237390,6290106,6304426,6315092,6328059,6398706,6398763,6408959,6416566,6485807,6505987,6506711,6535471,6560462,6584497,6604996,6622943,6625156,6629950,6653882,6666942,6682783,6690450,6698226,6704810,6712720,6742564,6757306,6759717,6771927,6797779,6804924,6837740,6838043,6846660,6848943,6863194,6864218,6885438,6889516,6920925,6929778,6931362,6933521,6936891,6945095,6979098,6990460,7005412,7005767,7033842,7041081,7052469,7059887,7065604,7081689,7096408,7104443,7118009,7139823,7207266,7208148,7222923,7226885,7228001,7246895,7258442,7266153,7270815,7276573,7300773,7304654,7309593,7344842,7363424,7379550,7388596,7414746,7415230,7423874,7443657,7492800,7503435,7523866,7529907,7608456,7611493,7616344,7637461,7645946,7668747,7672743,7678607,7682810,7708027,7710921,7721794,7745522,7757294,7772416,7803051,7805165,7834956,7873811,7881636,7901797,7912710,7916863,7917142,7921130,7923574,7946596,7983500,8073444,8099518,8161172,8216607,8220438,8240556,8258317,8265333,8328401,8333356,8359466,8403289,8446204,8455461,8475399,8509760,8517006,8535406,8545889,8568585,8593698,8596013,8596517,8611466,8642921,8648955,8656203,8673362,8681227,8698932,8711828,8754288,8759309,8796398,8818841,8846824,8850263,8861205,8864601,8868555,8882266,8899045,8903942,8911851,8982799,9025512,9031899,9048486,9053936,9074362,9079785,9082352,9087619,9115025,9140574,9200767,9240957,9263869,9265404,9299821,9304458,9305119,9305230,9323666,9324921,9352979,9355479,9358433,9412766,9422922,9426031,9426405,9427499,9431078,9472383,9531644,9544818,9545012,9579693,9581134,9656536,9667713,9697725,9736440,9763710,9770119,9775670,9780943,9815426,9816872,9896561,9902616,9981318,10008276,10018377,10027029,10028107,10030633,10037055,10045222,10057436,10189084,10212723,10296705,10331048,10359398,10361848,10397892,10406312,10409964,10433198,10452864,10476621,10481082,10481564,10533315,10546441,10565144,10623814,10658312,10689625,10716344,10768668,10794848,10853397,10854108,10868810,10911423,10967571,10981170,11008869,11026267,11044317,11121462,11135164,11156596,11229611,11284400,11504759,11506032,11517541,11621934,11663460,11687753,11707792,11715943,11741989,11746942,11773579,11780242,11800519,11956166,11979380,12024728,12134980,12140497,12213005,12234066,12235959,12236566,12260723,12270488,12273176,12297208,12347786,12403673,12514725,12523525,12586278,12692360,12713260,12967149,13027262,13083768,13120611,13150086,13198056,13199427,13204256,13272840,13275542,13276829,13592523,13639462,14447378,16058814,16379192,16821816,17213272,17603704,17672100,18268041,18736161,19036045,20202729,20266136,20463119,20617428,23025633,29312826,39135194
7000225:
7000226:
7000227:notfound
7000228:4769264
7000229:
7000230:private
7000231:2681518,3180855,4219215,4697372,5199809,5845861,5891542,6285481,6292846,6924364,6978545,7032012,7047716,7123673,7155280,7279847,7296385,7694126,8447968
7000232:private
7000233:
7000234:1146039,1376304,9207263,69834018
7000235:
7000236:2151730
7000237:private
7000238:notfound
7000239:notfound
7000240:notfound
7000241:340368,2656397,2962195,3294210,3597342,3635289,3853699,3857873,4505171,7635619,9605143,9635878,10667886,23759583
7000242:private
7000243:
7000244:2206291,2228786,2327023,2529140,2591011,2851186,2936467,2954947,2955856,3123808,3139036,3187878,3205897,3212277,3250915,3256814,3290468,3359341,3368398,3388085,3392793,3421109,3422974,3480790,3483561,3484411,3497069,3502266,3508616,3511954,3528546,3542135,3542243,3569945,3572092,3600511,3615124,3619004,3620570,3641303,3650023,3651007,3665328,3685418,3685831,3687943,3706729,3722915,3751487,3808377,3833856,3860478,3868873,3879524,3901382,3923615,3930339,3952588,3960863,3974945,4034226,4036784,4122753,4150928,4180718,4183560,4187696,4211048,4237027,4301897,4349672,4396546,4412119,4418061,4491642,4492037,4504356,4550731,4715460,4716013,4717346,4744185,4781549,4783869,4786958,5081538,5177596,5268429,5287563,5303044,5311135,5362396,5513353,5542909,5577430,5621294,5819197,6037493,6140122,6299860,6354857,6480114,6485447,6737872,6802636,6889524,6944909,6964632,7100376,7247922,7250868,7262370,7342102,7372611,7375290,7425379,7529530,7557313,7563661,7649768,7675923,7733271,7915016,7946181,7958152,8084210,8124428,8129429,8259662,8383893,8387197,8401306,8474718,8541367,8622645,8637649,8639908,8649126,8773149,8791233,8850109,8879337,8963732,8969086,9045720,9054365,9241438,9579766,9802864,9845705,9970612,9992294,10022459,10076246,10117080,10135851,10159813,10167880,10307114,10453420,10503678,10613030,10800123,10806682,10875450,10911563,11039041,11130539,11151514,11239915,11254607,11289003,11360367,11392526,11420942,11513628,11733658,11894377,11914965,11950089,11968430,11985362,12012027,12185230,12522501,12547862,12835914,13081118,13105568,13113520,13265060,13389868,13393235,13437699,13549272,13553985,13629090,13977347,14000812,14108969,14112848,14118520,14210608,14240196,14325124,14385413,14515420,14565998,14663431,14727570,14895959,14976321,14989832,15180087,15511742,15519487,15658374,15699944,16085478,16096868,16466416,16771720,17065156,17153156,17219606,17316275,17341531,17348182,17358628,17450493,17476071,17579055,17799536,17805105,17854462,17905045,17907475,17967694,18093097,18159809,18347956,18426920,18429821,18521731,18651666,18785841,18949235,19145950,19197355,19226650,19547680,19604140,19637692,19641483,19950619,19977472,19998570,20147572,20148792,20321268,20830522,21022195,21347703,21427947,21546318,22884276,23505609,23643779,24110755,24604005,24684688,26095059,26274428,26420593,26485618,27022320,27023823,27031368,27031595,27081292,27090742,27317501,27382381,27991906,28030293,28314949,29434510,29514426,29744771,30087897,30613619,31695398,32808036,33015257,33249600,33461329,36280037,36384053,37068217,37334450,38425233,39528513,43512136,43581729,44672862,45787016,46228057,46652763,46934789,47794010,50694359,58470760,59507143,68689727,84097935,90196599
7000245: